-- Merging decision tree log ---
manifest
ADDED from /home/katrolia/tfwithpopup/TFdetect-master/app/src/main/AndroidManifest.xml:2:1-38:12
INJECTED from /home/katrolia/tfwithpopup/TFdetect-master/app/src/main/AndroidManifest.xml:2:1-38:12
INJECTED from /home/katrolia/tfwithpopup/TFdetect-master/app/src/main/AndroidManifest.xml:2:1-38:12
INJECTED from /home/katrolia/tfwithpopup/TFdetect-master/app/src/main/AndroidManifest.xml:2:1-38:12
MERGED from [org.tensorflow:tensorflow-android:1.12.0] /home/katrolia/.gradle/caches/transforms-1/files-1.1/tensorflow-android-1.12.0.aar/ab910a9580d0a6248b3df8787b9ab5ec/AndroidManifest.xml:2:1-8:12
MERGED from [com.android.support:appcompat-v7:27.1.1] /home/katrolia/.gradle/caches/transforms-1/files-1.1/appcompat-v7-27.1.1.aar/5d043db5b60a4eec7135170c6f5e6330/AndroidManifest.xml:17:1-22:12
MERGED from [com.android.support.constraint:constraint-layout:1.1.3] /home/katrolia/.gradle/caches/transforms-1/files-1.1/constraint-layout-1.1.3.aar/32295c4e760e69ef546628658cd9a699/AndroidManifest.xml:2:1-11:12
MERGED from [com.android.support:support-fragment:27.1.1] /home/katrolia/.gradle/caches/transforms-1/files-1.1/support-fragment-27.1.1.aar/f0678b44aa96237f5758cea9a5401dcb/AndroidManifest.xml:17:1-22:12
MERGED from [com.android.support:animated-vector-drawable:27.1.1] /home/katrolia/.gradle/caches/transforms-1/files-1.1/animated-vector-drawable-27.1.1.aar/56c3bb874db9c1a4c440974012bee1fe/AndroidManifest.xml:17:1-22:12
MERGED from [com.android.support:support-core-ui:27.1.1] /home/katrolia/.gradle/caches/transforms-1/files-1.1/support-core-ui-27.1.1.aar/6ffa9551e1d2d929b4d20413177c5022/AndroidManifest.xml:17:1-22:12
MERGED from [com.android.support:support-core-utils:27.1.1] /home/katrolia/.gradle/caches/transforms-1/files-1.1/support-core-utils-27.1.1.aar/0b9765817180d8f3a55fa3470ca879dc/AndroidManifest.xml:17:1-22:12
MERGED from [com.android.support:support-vector-drawable:27.1.1] /home/katrolia/.gradle/caches/transforms-1/files-1.1/support-vector-drawable-27.1.1.aar/6d7984db720c9bb7b242f23a3cf134ea/AndroidManifest.xml:17:1-22:12
MERGED from [com.android.support:support-compat:27.1.1] /home/katrolia/.gradle/caches/transforms-1/files-1.1/support-compat-27.1.1.aar/41304ebc1c75ff9d41742a42bdec3d9f/AndroidManifest.xml:17:1-22:12
MERGED from [android.arch.lifecycle:livedata-core:1.1.0] /home/katrolia/.gradle/caches/transforms-1/files-1.1/livedata-core-1.1.0.aar/bff3c5c7e2e8794c9a778509138e5c7a/AndroidManifest.xml:17:1-22:12
MERGED from [android.arch.lifecycle:viewmodel:1.1.0] /home/katrolia/.gradle/caches/transforms-1/files-1.1/viewmodel-1.1.0.aar/32a5b8ccd88d77dafad848631b7b057c/AndroidManifest.xml:17:1-22:12
MERGED from [android.arch.lifecycle:runtime:1.1.0] /home/katrolia/.gradle/caches/transforms-1/files-1.1/runtime-1.1.0.aar/23bac3eb70c711e0c1cf02fb969225ba/AndroidManifest.xml:17:1-22:12
MERGED from [android.arch.core:runtime:1.1.0] /home/katrolia/.gradle/caches/transforms-1/files-1.1/runtime-1.1.0.aar/21cf5bf0d24f7fb3fe0541edcbec3f18/AndroidManifest.xml:17:1-22:12
INJECTED from /home/katrolia/tfwithpopup/TFdetect-master/app/src/main/AndroidManifest.xml:2:1-38:12
INJECTED from /home/katrolia/tfwithpopup/TFdetect-master/app/src/main/AndroidManifest.xml:2:1-38:12
INJECTED from /home/katrolia/tfwithpopup/TFdetect-master/app/src/main/AndroidManifest.xml:2:1-38:12
	package
		ADDED from /home/katrolia/tfwithpopup/TFdetect-master/app/src/main/AndroidManifest.xml:3:5-34
		INJECTED from /home/katrolia/tfwithpopup/TFdetect-master/app/src/main/AndroidManifest.xml
		INJECTED from /home/katrolia/tfwithpopup/TFdetect-master/app/src/main/AndroidManifest.xml
	android:versionName
		INJECTED from /home/katrolia/tfwithpopup/TFdetect-master/app/src/main/AndroidManifest.xml
		ADDED from /home/katrolia/tfwithpopup/TFdetect-master/app/src/main/AndroidManifest.xml:2:1-38:12
		INJECTED from /home/katrolia/tfwithpopup/TFdetect-master/app/src/main/AndroidManifest.xml
	android:versionCode
		INJECTED from /home/katrolia/tfwithpopup/TFdetect-master/app/src/main/AndroidManifest.xml
		ADDED from /home/katrolia/tfwithpopup/TFdetect-master/app/src/main/AndroidManifest.xml:2:1-38:12
		INJECTED from /home/katrolia/tfwithpopup/TFdetect-master/app/src/main/AndroidManifest.xml
	xmlns:android
		ADDED from /home/katrolia/tfwithpopup/TFdetect-master/app/src/main/AndroidManifest.xml:2:11-69
uses-permission#android.permission.CAMERA
ADDED from /home/katrolia/tfwithpopup/TFdetect-master/app/src/main/AndroidManifest.xml:5:5-65
	android:name
		ADDED from /home/katrolia/tfwithpopup/TFdetect-master/app/src/main/AndroidManifest.xml:5:22-62
uses-feature#android.hardware.camera
ADDED from /home/katrolia/tfwithpopup/TFdetect-master/app/src/main/AndroidManifest.xml:7:5-60
	android:name
		ADDED from /home/katrolia/tfwithpopup/TFdetect-master/app/src/main/AndroidManifest.xml:7:19-57
uses-feature#android.hardware.camera.autofocus
ADDED from /home/katrolia/tfwithpopup/TFdetect-master/app/src/main/AndroidManifest.xml:8:5-70
	android:name
		ADDED from /home/katrolia/tfwithpopup/TFdetect-master/app/src/main/AndroidManifest.xml:8:19-67
uses-permission#android.permission.WRITE_EXTERNAL_STORAGE
ADDED from /home/katrolia/tfwithpopup/TFdetect-master/app/src/main/AndroidManifest.xml:10:5-81
	android:name
		ADDED from /home/katrolia/tfwithpopup/TFdetect-master/app/src/main/AndroidManifest.xml:10:22-78
application
ADDED from /home/katrolia/tfwithpopup/TFdetect-master/app/src/main/AndroidManifest.xml:12:5-36:19
MERGED from [org.tensorflow:tensorflow-android:1.12.0] /home/katrolia/.gradle/caches/transforms-1/files-1.1/tensorflow-android-1.12.0.aar/ab910a9580d0a6248b3df8787b9ab5ec/AndroidManifest.xml:5:5-6:19
MERGED from [org.tensorflow:tensorflow-android:1.12.0] /home/katrolia/.gradle/caches/transforms-1/files-1.1/tensorflow-android-1.12.0.aar/ab910a9580d0a6248b3df8787b9ab5ec/AndroidManifest.xml:5:5-6:19
MERGED from [com.android.support.constraint:constraint-layout:1.1.3] /home/katrolia/.gradle/caches/transforms-1/files-1.1/constraint-layout-1.1.3.aar/32295c4e760e69ef546628658cd9a699/AndroidManifest.xml:9:5-20
MERGED from [com.android.support.constraint:constraint-layout:1.1.3] /home/katrolia/.gradle/caches/transforms-1/files-1.1/constraint-layout-1.1.3.aar/32295c4e760e69ef546628658cd9a699/AndroidManifest.xml:9:5-20
	android:label
		ADDED from /home/katrolia/tfwithpopup/TFdetect-master/app/src/main/AndroidManifest.xml:16:9-41
	android:debuggable
		ADDED from /home/katrolia/tfwithpopup/TFdetect-master/app/src/main/AndroidManifest.xml:14:9-34
	android:icon
		ADDED from /home/katrolia/tfwithpopup/TFdetect-master/app/src/main/AndroidManifest.xml:15:9-45
	android:allowBackup
		ADDED from /home/katrolia/tfwithpopup/TFdetect-master/app/src/main/AndroidManifest.xml:13:9-35
	android:theme
		ADDED from /home/katrolia/tfwithpopup/TFdetect-master/app/src/main/AndroidManifest.xml:17:9-45
activity#org.tensorflow.demo.ModelSelection
ADDED from /home/katrolia/tfwithpopup/TFdetect-master/app/src/main/AndroidManifest.xml:18:9-24:20
	android:name
		ADDED from /home/katrolia/tfwithpopup/TFdetect-master/app/src/main/AndroidManifest.xml:19:13-43
intent-filter#action:name:android.intent.action.MAIN+category:name:android.intent.category.LAUNCHER
ADDED from /home/katrolia/tfwithpopup/TFdetect-master/app/src/main/AndroidManifest.xml:20:13-23:29
action#android.intent.action.MAIN
ADDED from /home/katrolia/tfwithpopup/TFdetect-master/app/src/main/AndroidManifest.xml:21:17-69
	android:name
		ADDED from /home/katrolia/tfwithpopup/TFdetect-master/app/src/main/AndroidManifest.xml:21:25-66
category#android.intent.category.LAUNCHER
ADDED from /home/katrolia/tfwithpopup/TFdetect-master/app/src/main/AndroidManifest.xml:22:17-77
	android:name
		ADDED from /home/katrolia/tfwithpopup/TFdetect-master/app/src/main/AndroidManifest.xml:22:27-74
activity#org.tensorflow.demo.DetectorActivity
ADDED from /home/katrolia/tfwithpopup/TFdetect-master/app/src/main/AndroidManifest.xml:26:9-35:20
	android:screenOrientation
		ADDED from /home/katrolia/tfwithpopup/TFdetect-master/app/src/main/AndroidManifest.xml:29:13-49
	android:parentActivityName
		ADDED from /home/katrolia/tfwithpopup/TFdetect-master/app/src/main/AndroidManifest.xml:30:13-57
	android:label
		ADDED from /home/katrolia/tfwithpopup/TFdetect-master/app/src/main/AndroidManifest.xml:28:13-60
	android:name
		ADDED from /home/katrolia/tfwithpopup/TFdetect-master/app/src/main/AndroidManifest.xml:27:13-45
meta-data#android.support.PARENT_ACTIVITY
ADDED from /home/katrolia/tfwithpopup/TFdetect-master/app/src/main/AndroidManifest.xml:31:13-33:61
	android:value
		ADDED from /home/katrolia/tfwithpopup/TFdetect-master/app/src/main/AndroidManifest.xml:33:17-48
	android:name
		ADDED from /home/katrolia/tfwithpopup/TFdetect-master/app/src/main/AndroidManifest.xml:32:17-63
uses-sdk
INJECTED from /home/katrolia/tfwithpopup/TFdetect-master/app/src/main/AndroidManifest.xml reason: use-sdk injection requested
INJECTED from /home/katrolia/tfwithpopup/TFdetect-master/app/src/main/AndroidManifest.xml
INJECTED from /home/katrolia/tfwithpopup/TFdetect-master/app/src/main/AndroidManifest.xml
MERGED from [com.android.support:appcompat-v7:27.1.1] /home/katrolia/.gradle/caches/transforms-1/files-1.1/appcompat-v7-27.1.1.aar/5d043db5b60a4eec7135170c6f5e6330/AndroidManifest.xml:20:5-44
MERGED from [com.android.support:appcompat-v7:27.1.1] /home/katrolia/.gradle/caches/transforms-1/files-1.1/appcompat-v7-27.1.1.aar/5d043db5b60a4eec7135170c6f5e6330/AndroidManifest.xml:20:5-44
MERGED from [com.android.support.constraint:constraint-layout:1.1.3] /home/katrolia/.gradle/caches/transforms-1/files-1.1/constraint-layout-1.1.3.aar/32295c4e760e69ef546628658cd9a699/AndroidManifest.xml:5:5-7:41
MERGED from [com.android.support.constraint:constraint-layout:1.1.3] /home/katrolia/.gradle/caches/transforms-1/files-1.1/constraint-layout-1.1.3.aar/32295c4e760e69ef546628658cd9a699/AndroidManifest.xml:5:5-7:41
MERGED from [com.android.support:support-fragment:27.1.1] /home/katrolia/.gradle/caches/transforms-1/files-1.1/support-fragment-27.1.1.aar/f0678b44aa96237f5758cea9a5401dcb/AndroidManifest.xml:20:5-44
MERGED from [com.android.support:support-fragment:27.1.1] /home/katrolia/.gradle/caches/transforms-1/files-1.1/support-fragment-27.1.1.aar/f0678b44aa96237f5758cea9a5401dcb/AndroidManifest.xml:20:5-44
MERGED from [com.android.support:animated-vector-drawable:27.1.1] /home/katrolia/.gradle/caches/transforms-1/files-1.1/animated-vector-drawable-27.1.1.aar/56c3bb874db9c1a4c440974012bee1fe/AndroidManifest.xml:20:5-44
MERGED from [com.android.support:animated-vector-drawable:27.1.1] /home/katrolia/.gradle/caches/transforms-1/files-1.1/animated-vector-drawable-27.1.1.aar/56c3bb874db9c1a4c440974012bee1fe/AndroidManifest.xml:20:5-44
MERGED from [com.android.support:support-core-ui:27.1.1] /home/katrolia/.gradle/caches/transforms-1/files-1.1/support-core-ui-27.1.1.aar/6ffa9551e1d2d929b4d20413177c5022/AndroidManifest.xml:20:5-44
MERGED from [com.android.support:support-core-ui:27.1.1] /home/katrolia/.gradle/caches/transforms-1/files-1.1/support-core-ui-27.1.1.aar/6ffa9551e1d2d929b4d20413177c5022/AndroidManifest.xml:20:5-44
MERGED from [com.android.support:support-core-utils:27.1.1] /home/katrolia/.gradle/caches/transforms-1/files-1.1/support-core-utils-27.1.1.aar/0b9765817180d8f3a55fa3470ca879dc/AndroidManifest.xml:20:5-44
MERGED from [com.android.support:support-core-utils:27.1.1] /home/katrolia/.gradle/caches/transforms-1/files-1.1/support-core-utils-27.1.1.aar/0b9765817180d8f3a55fa3470ca879dc/AndroidManifest.xml:20:5-44
MERGED from [com.android.support:support-vector-drawable:27.1.1] /home/katrolia/.gradle/caches/transforms-1/files-1.1/support-vector-drawable-27.1.1.aar/6d7984db720c9bb7b242f23a3cf134ea/AndroidManifest.xml:20:5-44
MERGED from [com.android.support:support-vector-drawable:27.1.1] /home/katrolia/.gradle/caches/transforms-1/files-1.1/support-vector-drawable-27.1.1.aar/6d7984db720c9bb7b242f23a3cf134ea/AndroidManifest.xml:20:5-44
MERGED from [com.android.support:support-compat:27.1.1] /home/katrolia/.gradle/caches/transforms-1/files-1.1/support-compat-27.1.1.aar/41304ebc1c75ff9d41742a42bdec3d9f/AndroidManifest.xml:20:5-44
MERGED from [com.android.support:support-compat:27.1.1] /home/katrolia/.gradle/caches/transforms-1/files-1.1/support-compat-27.1.1.aar/41304ebc1c75ff9d41742a42bdec3d9f/AndroidManifest.xml:20:5-44
MERGED from [android.arch.lifecycle:livedata-core:1.1.0] /home/katrolia/.gradle/caches/transforms-1/files-1.1/livedata-core-1.1.0.aar/bff3c5c7e2e8794c9a778509138e5c7a/AndroidManifest.xml:20:5-44
MERGED from [android.arch.lifecycle:livedata-core:1.1.0] /home/katrolia/.gradle/caches/transforms-1/files-1.1/livedata-core-1.1.0.aar/bff3c5c7e2e8794c9a778509138e5c7a/AndroidManifest.xml:20:5-44
MERGED from [android.arch.lifecycle:viewmodel:1.1.0] /home/katrolia/.gradle/caches/transforms-1/files-1.1/viewmodel-1.1.0.aar/32a5b8ccd88d77dafad848631b7b057c/AndroidManifest.xml:20:5-44
MERGED from [android.arch.lifecycle:viewmodel:1.1.0] /home/katrolia/.gradle/caches/transforms-1/files-1.1/viewmodel-1.1.0.aar/32a5b8ccd88d77dafad848631b7b057c/AndroidManifest.xml:20:5-44
MERGED from [android.arch.lifecycle:runtime:1.1.0] /home/katrolia/.gradle/caches/transforms-1/files-1.1/runtime-1.1.0.aar/23bac3eb70c711e0c1cf02fb969225ba/AndroidManifest.xml:20:5-44
MERGED from [android.arch.lifecycle:runtime:1.1.0] /home/katrolia/.gradle/caches/transforms-1/files-1.1/runtime-1.1.0.aar/23bac3eb70c711e0c1cf02fb969225ba/AndroidManifest.xml:20:5-44
MERGED from [android.arch.core:runtime:1.1.0] /home/katrolia/.gradle/caches/transforms-1/files-1.1/runtime-1.1.0.aar/21cf5bf0d24f7fb3fe0541edcbec3f18/AndroidManifest.xml:20:5-44
MERGED from [android.arch.core:runtime:1.1.0] /home/katrolia/.gradle/caches/transforms-1/files-1.1/runtime-1.1.0.aar/21cf5bf0d24f7fb3fe0541edcbec3f18/AndroidManifest.xml:20:5-44
INJECTED from /home/katrolia/tfwithpopup/TFdetect-master/app/src/main/AndroidManifest.xml
INJECTED from /home/katrolia/tfwithpopup/TFdetect-master/app/src/main/AndroidManifest.xml
	android:targetSdkVersion
		INJECTED from /home/katrolia/tfwithpopup/TFdetect-master/app/src/main/AndroidManifest.xml
		ADDED from /home/katrolia/tfwithpopup/TFdetect-master/app/src/main/AndroidManifest.xml
		INJECTED from /home/katrolia/tfwithpopup/TFdetect-master/app/src/main/AndroidManifest.xml
	android:minSdkVersion
		INJECTED from /home/katrolia/tfwithpopup/TFdetect-master/app/src/main/AndroidManifest.xml
		ADDED from /home/katrolia/tfwithpopup/TFdetect-master/app/src/main/AndroidManifest.xml
		INJECTED from /home/katrolia/tfwithpopup/TFdetect-master/app/src/main/AndroidManifest.xml
uses-permission#android.permission.READ_PHONE_STATE
IMPLIED from /home/katrolia/tfwithpopup/TFdetect-master/app/src/main/AndroidManifest.xml:2:1-38:12 reason: tensorflow.contrib.android has a targetSdkVersion < 4
uses-permission#android.permission.READ_EXTERNAL_STORAGE
IMPLIED from /home/katrolia/tfwithpopup/TFdetect-master/app/src/main/AndroidManifest.xml:2:1-38:12 reason: tensorflow.contrib.android requested WRITE_EXTERNAL_STORAGE
